interfacer • interfacer
…
if (rlang::is_installed("ggplot2")) {
  
  i_diamonds = iface( 
    color = enum(D,E,F,G,H,I,J,extra) ~ "the colour",
    cut = enum(Ideal, Premium, .drop=TRUE) ~ "the cut",
    price = integer ~ "the price"
  )
  
  # itest(ggplot2::diamonds, i_diamonds)
  iconvert(ggplot2::diamonds, i_diamonds, .prune = TRUE)
  
}
#> # A tibble: 53,940 × 3
#>    color cut     price
#>    <fct> <fct>   <int>
#>  1 E     Ideal     326
#>  2 E     Premium   326
#>  3 E     NA        327
#>  4 I     Premium   334
#>  5 J     NA        335
#>  6 J     NA        336
#>  7 I     NA        336
#>  8 H     NA        337
#>  9 E     NA        337
#> 10 H     NA        338
#> # ℹ 53,930 more rows
…
